%YAML 1.1
%TAG !u! tag:unity3d.com,2011:
--- !u!114 &11400000
MonoBehaviour:
  m_ObjectHideFlags: 0
  m_CorrespondingSourceObject: {fileID: 0}
  m_PrefabInstance: {fileID: 0}
  m_PrefabAsset: {fileID: 0}
  m_GameObject: {fileID: 0}
  m_Enabled: 1
  m_EditorHideFlags: 0
  m_Script: {fileID: 11500000, guid: 893e79c28c72f4a27b30e04754000ea9, type: 3}
  m_Name: AkWwiseProjectData
  m_EditorClassIdentifier: 
  AcousticTextureWwu:
  - PhysicalPath: Virtual Acoustics/Default Work Unit.wwu
    ParentPhysicalPath: 
    guid: 086d445ea8eea946919df481b8a34925
    GuidInternal: 
    m_lastTime: -8586463223784775808
    List: []
  AuxBusWwu:
  - PhysicalPath: Master-Mixer Hierarchy/Default Work Unit.wwu
    ParentPhysicalPath: 
    guid: f45fc43408ddf14db513bb08993aa14f
    GuidInternal: 
    m_lastTime: -8586463223784775808
    List: []
  BankWwu:
  - PhysicalPath: SoundBanks/Default Work Unit.wwu
    ParentPhysicalPath: 
    guid: e9588fe2e93a714ba67308de3df227fe
    GuidInternal: 
    m_lastTime: -8586463215914775808
    List:
    - name: SWAMP_BANK
      guid: f710bf40b141ee42909ed8ffcbcabb8b
      id: 3859623424
      PathAndIcons:
      - ElementName: Default Work Unit
        ObjectType: 12
      - ElementName: SWAMP_BANK
        ObjectType: 7
      Path: Default Work Unit/SWAMP_BANK
  EventWwu:
  - PhysicalPath: Events/Default Work Unit.wwu
    ParentPhysicalPath: 
    guid: 8e9ceed04be77d41954c3a50194dd0be
    GuidInternal: 
    m_lastTime: -8586463215914775808
    List:
    - name: Play_Swamp_BGM
      guid: ddc0b7d49f6ada47953bcaf0247dd508
      id: 3366725289
      PathAndIcons:
      - ElementName: Default Work Unit
        ObjectType: 12
      - ElementName: SWAMP
        ObjectType: 4
      - ElementName: Play_Swamp_BGM
        ObjectType: 3
      Path: Default Work Unit/SWAMP/Play_Swamp_BGM
      maxAttenuation: 0
      maxDuration: 0
      minDuration: 0
  RtpcWwu:
  - PhysicalPath: Game Parameters/Default Work Unit.wwu
    ParentPhysicalPath: 
    guid: 702a5664ebde4a4687a8761cda388ac4
    GuidInternal: 
    m_lastTime: -8586463223784775808
    List: []
  StateWwu:
  - PhysicalPath: States/Default Work Unit.wwu
    ParentPhysicalPath: 
    guid: 059e74bcc8189e419afdedb32465a9a4
    GuidInternal: 
    m_lastTime: -8586463223784775808
    List: []
  SwitchWwu:
  - PhysicalPath: Switches/Default Work Unit.wwu
    ParentPhysicalPath: 
    guid: 10790b9ec7c96c42b2cb8e409cbdd55a
    GuidInternal: 
    m_lastTime: -8586463223784775808
    List: []
  TriggerWwu:
  - PhysicalPath: Triggers/Default Work Unit.wwu
    ParentPhysicalPath: 
    guid: a8bd9ac653c8d94a81cb3282f9b3cf6f
    GuidInternal: 
    m_lastTime: -8586463223784775808
    List: []
  ExpandedItems:
  - /SLAG_Unity_WwiseProject
  - /SLAG_Unity_WwiseProject/SoundBanks
  - /SLAG_Unity_WwiseProject/SoundBanks/Default Work Unit
  autoPopulateEnabled: 1
  CurrentPluginConfig: 
